%YAML 1.1
%TAG !u! tag:unity3d.com,2011:
--- !u!114 &11400000
MonoBehaviour:
  m_ObjectHideFlags: 0
  m_CorrespondingSourceObject: {fileID: 0}
  m_PrefabInstance: {fileID: 0}
  m_PrefabAsset: {fileID: 0}
  m_GameObject: {fileID: 0}
  m_Enabled: 1
  m_EditorHideFlags: 0
  m_Script: {fileID: 11500000, guid: 609247392d492a14683a16b3bbc2cb61, type: 3}
  m_Name: Idle Sniper
  m_EditorClassIdentifier: 
  actions:
  - {fileID: 11400000, guid: 3bd0cd7a53cb3ea4cb94ebf2c6194ec6, type: 2}
  transitions:
  - decision: {fileID: 11400000, guid: 7a25d3f6f7418954fbf86fedfd65c10d, type: 2}
    trueState: {fileID: 11400000, guid: 0374c739d7e10fe44ae9c0f5282132fa, type: 2}
    falseState: {fileID: 11400000, guid: f96ef482758921f4a835defade7fa990, type: 2}
  sceneGizmoColor: {r: 0.04460168, g: 1, b: 0, a: 1}
