%YAML 1.1
%TAG !u! tag:unity3d.com,2011:
--- !u!114 &11400000
MonoBehaviour:
  m_ObjectHideFlags: 0
  m_CorrespondingSourceObject: {fileID: 0}
  m_PrefabInstance: {fileID: 0}
  m_PrefabAsset: {fileID: 0}
  m_GameObject: {fileID: 0}
  m_Enabled: 1
  m_EditorHideFlags: 0
  m_Script: {fileID: 11500000, guid: 609247392d492a14683a16b3bbc2cb61, type: 3}
  m_Name: Chase Melee
  m_EditorClassIdentifier: 
  actions:
  - {fileID: 11400000, guid: 7239ad98103aee14dbea66026e8d03fd, type: 2}
  transitions:
  - decision: {fileID: 11400000, guid: a41b64f5f9d8fd34b9e19a668ee3aa0a, type: 2}
    trueState: {fileID: 11400000, guid: f8aed8b2b52fb9540a52dd87188e0deb, type: 2}
    falseState: {fileID: 11400000, guid: f96ef482758921f4a835defade7fa990, type: 2}
  - decision: {fileID: 11400000, guid: c88b917f9c4be29479d61bb8c418a9e1, type: 2}
    trueState: {fileID: 11400000, guid: 734fec436ed35af499df5762699a0ab6, type: 2}
    falseState: {fileID: 11400000, guid: f96ef482758921f4a835defade7fa990, type: 2}
  - decision: {fileID: 11400000, guid: ae10c8946c9eaa14d942081e0988a91f, type: 2}
    trueState: {fileID: 11400000, guid: 42b8560ee1720f24698fb0f2b2c850fb, type: 2}
    falseState: {fileID: 11400000, guid: f96ef482758921f4a835defade7fa990, type: 2}
  sceneGizmoColor: {r: 1, g: 0.7218301, b: 0, a: 1}
