%YAML 1.1
%TAG !u! tag:unity3d.com,2011:
--- !u!1 &182567368873942038
GameObject:
  m_ObjectHideFlags: 0
  m_CorrespondingSourceObject: {fileID: 0}
  m_PrefabInstance: {fileID: 0}
  m_PrefabAsset: {fileID: 0}
  serializedVersion: 6
  m_Component:
  - component: {fileID: 182567368873942059}
  - component: {fileID: 182567368873942036}
  - component: {fileID: 182567368873942037}
  m_Layer: 0
  m_Name: Cable
  m_TagString: Untagged
  m_Icon: {fileID: 0}
  m_NavMeshLayer: 0
  m_StaticEditorFlags: 0
  m_IsActive: 1
--- !u!4 &182567368873942059
Transform:
  m_ObjectHideFlags: 0
  m_CorrespondingSourceObject: {fileID: 0}
  m_PrefabInstance: {fileID: 0}
  m_PrefabAsset: {fileID: 0}
  m_GameObject: {fileID: 182567368873942038}
  m_LocalRotation: {x: -0.19757281, y: -0.19757281, z: 0.67894405, w: 0.67894405}
  m_LocalPosition: {x: 0.35, y: 1.298, z: 31.15}
  m_LocalScale: {x: 0.1, y: 0.04, z: 0.1}
  m_Children: []
  m_Father: {fileID: 0}
  m_RootOrder: 0
  m_LocalEulerAnglesHint: {x: 0, y: -32.45, z: 90}
--- !u!137 &182567368873942036
SkinnedMeshRenderer:
  m_ObjectHideFlags: 0
  m_CorrespondingSourceObject: {fileID: 0}
  m_PrefabInstance: {fileID: 0}
  m_PrefabAsset: {fileID: 0}
  m_GameObject: {fileID: 182567368873942038}
  m_Enabled: 1
  m_CastShadows: 1
  m_ReceiveShadows: 1
  m_DynamicOccludee: 1
  m_MotionVectors: 1
  m_LightProbeUsage: 1
  m_ReflectionProbeUsage: 1
  m_RayTracingMode: 0
  m_RenderingLayerMask: 1
  m_RendererPriority: 0
  m_Materials:
  - {fileID: -1862206251503068581, guid: b6aacbaa9c68fe64d90c4748f3b80f2e, type: 3}
  m_StaticBatchInfo:
    firstSubMesh: 0
    subMeshCount: 0
  m_StaticBatchRoot: {fileID: 0}
  m_ProbeAnchor: {fileID: 0}
  m_LightProbeVolumeOverride: {fileID: 0}
  m_ScaleInLightmap: 1
  m_ReceiveGI: 1
  m_PreserveUVs: 0
  m_IgnoreNormalsForChartDetection: 0
  m_ImportantGI: 0
  m_StitchLightmapSeams: 1
  m_SelectedEditorRenderState: 3
  m_MinimumChartSize: 4
  m_AutoUVMaxDistance: 0.5
  m_AutoUVMaxAngle: 89
  m_LightmapParameters: {fileID: 0}
  m_SortingLayerID: 0
  m_SortingLayer: 0
  m_SortingOrder: 0
  serializedVersion: 2
  m_Quality: 0
  m_UpdateWhenOffscreen: 0
  m_SkinnedMotionVectors: 1
  m_Mesh: {fileID: -2124705421725058983, guid: b6aacbaa9c68fe64d90c4748f3b80f2e, type: 3}
  m_Bones: []
  m_BlendShapeWeights: []
  m_RootBone: {fileID: 0}
  m_AABB:
    m_Center: {x: -0.00004339218, y: 45.01102, z: 0.000001937151}
    m_Extent: {x: 1.0000434, y: 45.01102, z: 1.0000019}
  m_DirtyAABB: 0
--- !u!183 &182567368873942037
Cloth:
  m_ObjectHideFlags: 0
  m_CorrespondingSourceObject: {fileID: 0}
  m_PrefabInstance: {fileID: 0}
  m_PrefabAsset: {fileID: 0}
  m_GameObject: {fileID: 182567368873942038}
  m_Enabled: 1
  m_StretchingStiffness: 1
  m_BendingStiffness: 1
  m_UseTethers: 0
  m_UseGravity: 1
  m_Damping: 0.3
  m_ExternalAcceleration: {x: 0, y: 0, z: 0}
  m_RandomAcceleration: {x: 0, y: 0, z: 0}
  m_WorldVelocityScale: 0.5
  m_WorldAccelerationScale: 1
  m_Friction: 0.5
  m_CollisionMassScale: 0
  m_UseContinuousCollision: 0
  m_UseVirtualParticles: 0
  m_SolverFrequency: 120
  m_SleepThreshold: 0.1
  m_Coefficients:
  - maxDistance: 0
    collisionSphereDistance: 3.4028235e+38
  - maxDistance: 0
    collisionSphereDistance: 3.4028235e+38
  - maxDistance: 0
    collisionSphereDistance: 3.4028235e+38
  - maxDistance: 0
    collisionSphereDistance: 3.4028235e+38
  - maxDistance: 0
    collisionSphereDistance: 3.4028235e+38
  - maxDistance: 0
    collisionSphereDistance: 3.4028235e+38
  - maxDistance: 0
    collisionSphereDistance: 3.4028235e+38
  - maxDistance: 0
    collisionSphereDistance: 3.4028235e+38
  - maxDistance: 0
    collisionSphereDistance: 3.4028235e+38
  - maxDistance: 0
    collisionSphereDistance: 3.4028235e+38
  - maxDistance: 0
    collisionSphereDistance: 3.4028235e+38
  - maxDistance: 0
    collisionSphereDistance: 3.4028235e+38
  - maxDistance: 0
    collisionSphereDistance: 3.4028235e+38
  - maxDistance: 0
    collisionSphereDistance: 3.4028235e+38
  - maxDistance: 0
    collisionSphereDistance: 3.4028235e+38
  - maxDistance: 0
    collisionSphereDistance: 3.4028235e+38
  - maxDistance: 0
    collisionSphereDistance: 3.4028235e+38
  - maxDistance: 0
    collisionSphereDistance: 3.4028235e+38
  - maxDistance: 0
    collisionSphereDistance: 3.4028235e+38
  - maxDistance: 0
    collisionSphereDistance: 3.4028235e+38
  - maxDistance: 0
    collisionSphereDistance: 3.4028235e+38
  - maxDistance: 0
    collisionSphereDistance: 3.4028235e+38
  - maxDistance: 0
    collisionSphereDistance: 3.4028235e+38
  - maxDistance: 0
    collisionSphereDistance: 3.4028235e+38
  - maxDistance: 0
    collisionSphereDistance: 3.4028235e+38
  - maxDistance: 0
    collisionSphereDistance: 3.4028235e+38
  - maxDistance: 0
    collisionSphereDistance: 3.4028235e+38
  - maxDistance: 0
    collisionSphereDistance: 3.4028235e+38
  - maxDistance: 0
    collisionSphereDistance: 3.4028235e+38
  - maxDistance: 0
    collisionSphereDistance: 3.4028235e+38
  - maxDistance: 0
    collisionSphereDistance: 3.4028235e+38
  - maxDistance: 0
    collisionSphereDistance: 3.4028235e+38
  - maxDistance: 0
    collisionSphereDistance: 3.4028235e+38
  - maxDistance: 0
    collisionSphereDistance: 3.4028235e+38
  - maxDistance: 0
    collisionSphereDistance: 3.4028235e+38
  - maxDistance: 0
    collisionSphereDistance: 3.4028235e+38
  - maxDistance: 0
    collisionSphereDistance: 3.4028235e+38
  - maxDistance: 0
    collisionSphereDistance: 3.4028235e+38
  - maxDistance: 2
    collisionSphereDistance: 3.4028235e+38
  - maxDistance: 2
    collisionSphereDistance: 3.4028235e+38
  - maxDistance: 2
    collisionSphereDistance: 3.4028235e+38
  - maxDistance: 2
    collisionSphereDistance: 3.4028235e+38
  - maxDistance: 2
    collisionSphereDistance: 3.4028235e+38
  - maxDistance: 2
    collisionSphereDistance: 3.4028235e+38
  - maxDistance: 2
    collisionSphereDistance: 3.4028235e+38
  - maxDistance: 2
    collisionSphereDistance: 3.4028235e+38
  - maxDistance: 2
    collisionSphereDistance: 3.4028235e+38
  - maxDistance: 2
    collisionSphereDistance: 3.4028235e+38
  - maxDistance: 2
    collisionSphereDistance: 3.4028235e+38
  - maxDistance: 2
    collisionSphereDistance: 3.4028235e+38
  - maxDistance: 2
    collisionSphereDistance: 3.4028235e+38
  - maxDistance: 2
    collisionSphereDistance: 3.4028235e+38
  - maxDistance: 2
    collisionSphereDistance: 3.4028235e+38
  - maxDistance: 2
    collisionSphereDistance: 3.4028235e+38
  - maxDistance: 2
    collisionSphereDistance: 3.4028235e+38
  - maxDistance: 2
    collisionSphereDistance: 3.4028235e+38
  - maxDistance: 2
    collisionSphereDistance: 3.4028235e+38
  - maxDistance: 2
    collisionSphereDistance: 3.4028235e+38
  - maxDistance: 2
    collisionSphereDistance: 3.4028235e+38
  - maxDistance: 2
    collisionSphereDistance: 3.4028235e+38
  - maxDistance: 2
    collisionSphereDistance: 3.4028235e+38
  - maxDistance: 2
    collisionSphereDistance: 3.4028235e+38
  - maxDistance: 2
    collisionSphereDistance: 3.4028235e+38
  - maxDistance: 2
    collisionSphereDistance: 3.4028235e+38
  - maxDistance: 2
    collisionSphereDistance: 3.4028235e+38
  - maxDistance: 2
    collisionSphereDistance: 3.4028235e+38
  - maxDistance: 2
    collisionSphereDistance: 3.4028235e+38
  - maxDistance: 2
    collisionSphereDistance: 3.4028235e+38
  - maxDistance: 0
    collisionSphereDistance: 3.4028235e+38
  - maxDistance: 0
    collisionSphereDistance: 3.4028235e+38
  - maxDistance: 0
    collisionSphereDistance: 3.4028235e+38
  - maxDistance: 0
    collisionSphereDistance: 3.4028235e+38
  - maxDistance: 0
    collisionSphereDistance: 3.4028235e+38
  - maxDistance: 0
    collisionSphereDistance: 3.4028235e+38
  - maxDistance: 0
    collisionSphereDistance: 3.4028235e+38
  - maxDistance: 0
    collisionSphereDistance: 3.4028235e+38
  - maxDistance: 0
    collisionSphereDistance: 3.4028235e+38
  - maxDistance: 0
    collisionSphereDistance: 3.4028235e+38
  - maxDistance: 0
    collisionSphereDistance: 3.4028235e+38
  - maxDistance: 0
    collisionSphereDistance: 3.4028235e+38
  - maxDistance: 0
    collisionSphereDistance: 3.4028235e+38
  - maxDistance: 0
    collisionSphereDistance: 3.4028235e+38
  - maxDistance: 0
    collisionSphereDistance: 3.4028235e+38
  - maxDistance: 0
    collisionSphereDistance: 3.4028235e+38
  - maxDistance: 0
    collisionSphereDistance: 3.4028235e+38
  - maxDistance: 0
    collisionSphereDistance: 3.4028235e+38
  - maxDistance: 0
    collisionSphereDistance: 3.4028235e+38
  - maxDistance: 0
    collisionSphereDistance: 3.4028235e+38
  - maxDistance: 0
    collisionSphereDistance: 3.4028235e+38
  - maxDistance: 0
    collisionSphereDistance: 3.4028235e+38
  - maxDistance: 0
    collisionSphereDistance: 3.4028235e+38
  - maxDistance: 0
    collisionSphereDistance: 3.4028235e+38
  - maxDistance: 0
    collisionSphereDistance: 3.4028235e+38
  - maxDistance: 0
    collisionSphereDistance: 3.4028235e+38
  - maxDistance: 0
    collisionSphereDistance: 3.4028235e+38
  - maxDistance: 0
    collisionSphereDistance: 3.4028235e+38
  - maxDistance: 0
    collisionSphereDistance: 3.4028235e+38
  - maxDistance: 0
    collisionSphereDistance: 3.4028235e+38
  - maxDistance: 0
    collisionSphereDistance: 3.4028235e+38
  - maxDistance: 0
    collisionSphereDistance: 3.4028235e+38
  - maxDistance: 0
    collisionSphereDistance: 3.4028235e+38
  - maxDistance: 0
    collisionSphereDistance: 3.4028235e+38
  - maxDistance: 0
    collisionSphereDistance: 3.4028235e+38
  - maxDistance: 0
    collisionSphereDistance: 3.4028235e+38
  - maxDistance: 2
    collisionSphereDistance: 3.4028235e+38
  - maxDistance: 2
    collisionSphereDistance: 3.4028235e+38
  - maxDistance: 2
    collisionSphereDistance: 3.4028235e+38
  - maxDistance: 2
    collisionSphereDistance: 3.4028235e+38
  - maxDistance: 2
    collisionSphereDistance: 3.4028235e+38
  - maxDistance: 2
    collisionSphereDistance: 3.4028235e+38
  - maxDistance: 2
    collisionSphereDistance: 3.4028235e+38
  - maxDistance: 2
    collisionSphereDistance: 3.4028235e+38
  - maxDistance: 2
    collisionSphereDistance: 3.4028235e+38
  - maxDistance: 2
    collisionSphereDistance: 3.4028235e+38
  - maxDistance: 2
    collisionSphereDistance: 3.4028235e+38
  - maxDistance: 2
    collisionSphereDistance: 3.4028235e+38
  - maxDistance: 2
    collisionSphereDistance: 3.4028235e+38
  - maxDistance: 2
    collisionSphereDistance: 3.4028235e+38
  - maxDistance: 2
    collisionSphereDistance: 3.4028235e+38
  - maxDistance: 2
    collisionSphereDistance: 3.4028235e+38
  - maxDistance: 2
    collisionSphereDistance: 3.4028235e+38
  - maxDistance: 2
    collisionSphereDistance: 3.4028235e+38
  - maxDistance: 2
    collisionSphereDistance: 3.4028235e+38
  - maxDistance: 2
    collisionSphereDistance: 3.4028235e+38
  - maxDistance: 2
    collisionSphereDistance: 3.4028235e+38
  - maxDistance: 2
    collisionSphereDistance: 3.4028235e+38
  - maxDistance: 2
    collisionSphereDistance: 3.4028235e+38
  - maxDistance: 2
    collisionSphereDistance: 3.4028235e+38
  - maxDistance: 2
    collisionSphereDistance: 3.4028235e+38
  - maxDistance: 2
    collisionSphereDistance: 3.4028235e+38
  - maxDistance: 2
    collisionSphereDistance: 3.4028235e+38
  - maxDistance: 2
    collisionSphereDistance: 3.4028235e+38
  - maxDistance: 2
    collisionSphereDistance: 3.4028235e+38
  - maxDistance: 2
    collisionSphereDistance: 3.4028235e+38
  - maxDistance: 0
    collisionSphereDistance: 3.4028235e+38
  - maxDistance: 0
    collisionSphereDistance: 3.4028235e+38
  - maxDistance: 0
    collisionSphereDistance: 3.4028235e+38
  - maxDistance: 0
    collisionSphereDistance: 3.4028235e+38
  - maxDistance: 2
    collisionSphereDistance: 3.4028235e+38
  - maxDistance: 2
    collisionSphereDistance: 3.4028235e+38
  - maxDistance: 2
    collisionSphereDistance: 3.4028235e+38
  - maxDistance: 2
    collisionSphereDistance: 3.4028235e+38
  - maxDistance: 2
    collisionSphereDistance: 3.4028235e+38
  - maxDistance: 2
    collisionSphereDistance: 3.4028235e+38
  - maxDistance: 2
    collisionSphereDistance: 3.4028235e+38
  - maxDistance: 2
    collisionSphereDistance: 3.4028235e+38
  - maxDistance: 2
    collisionSphereDistance: 3.4028235e+38
  - maxDistance: 2
    collisionSphereDistance: 3.4028235e+38
  - maxDistance: 2
    collisionSphereDistance: 3.4028235e+38
  - maxDistance: 2
    collisionSphereDistance: 3.4028235e+38
  - maxDistance: 2
    collisionSphereDistance: 3.4028235e+38
  - maxDistance: 2
    collisionSphereDistance: 3.4028235e+38
  - maxDistance: 2
    collisionSphereDistance: 3.4028235e+38
  - maxDistance: 0
    collisionSphereDistance: 3.4028235e+38
  - maxDistance: 0
    collisionSphereDistance: 3.4028235e+38
  - maxDistance: 0
    collisionSphereDistance: 3.4028235e+38
  - maxDistance: 2
    collisionSphereDistance: 3.4028235e+38
  - maxDistance: 2
    collisionSphereDistance: 3.4028235e+38
  - maxDistance: 2
    collisionSphereDistance: 3.4028235e+38
  - maxDistance: 2
    collisionSphereDistance: 3.4028235e+38
  - maxDistance: 2
    collisionSphereDistance: 3.4028235e+38
  - maxDistance: 2
    collisionSphereDistance: 3.4028235e+38
  - maxDistance: 2
    collisionSphereDistance: 3.4028235e+38
  - maxDistance: 2
    collisionSphereDistance: 3.4028235e+38
  - maxDistance: 2
    collisionSphereDistance: 3.4028235e+38
  - maxDistance: 2
    collisionSphereDistance: 3.4028235e+38
  - maxDistance: 2
    collisionSphereDistance: 3.4028235e+38
  - maxDistance: 2
    collisionSphereDistance: 3.4028235e+38
  - maxDistance: 2
    collisionSphereDistance: 3.4028235e+38
  - maxDistance: 2
    collisionSphereDistance: 3.4028235e+38
  - maxDistance: 2
    collisionSphereDistance: 3.4028235e+38
  - maxDistance: 0
    collisionSphereDistance: 3.4028235e+38
  - maxDistance: 0
    collisionSphereDistance: 3.4028235e+38
  - maxDistance: 0
    collisionSphereDistance: 3.4028235e+38
  - maxDistance: 2
    collisionSphereDistance: 3.4028235e+38
  - maxDistance: 2
    collisionSphereDistance: 3.4028235e+38
  - maxDistance: 2
    collisionSphereDistance: 3.4028235e+38
  - maxDistance: 2
    collisionSphereDistance: 3.4028235e+38
  - maxDistance: 2
    collisionSphereDistance: 3.4028235e+38
  - maxDistance: 2
    collisionSphereDistance: 3.4028235e+38
  - maxDistance: 2
    collisionSphereDistance: 3.4028235e+38
  - maxDistance: 2
    collisionSphereDistance: 3.4028235e+38
  - maxDistance: 2
    collisionSphereDistance: 3.4028235e+38
  - maxDistance: 2
    collisionSphereDistance: 3.4028235e+38
  - maxDistance: 2
    collisionSphereDistance: 3.4028235e+38
  - maxDistance: 2
    collisionSphereDistance: 3.4028235e+38
  - maxDistance: 2
    collisionSphereDistance: 3.4028235e+38
  - maxDistance: 2
    collisionSphereDistance: 3.4028235e+38
  - maxDistance: 2
    collisionSphereDistance: 3.4028235e+38
  - maxDistance: 0
    collisionSphereDistance: 3.4028235e+38
  - maxDistance: 0
    collisionSphereDistance: 3.4028235e+38
  - maxDistance: 0
    collisionSphereDistance: 3.4028235e+38
  - maxDistance: 2
    collisionSphereDistance: 3.4028235e+38
  - maxDistance: 2
    collisionSphereDistance: 3.4028235e+38
  - maxDistance: 2
    collisionSphereDistance: 3.4028235e+38
  - maxDistance: 2
    collisionSphereDistance: 3.4028235e+38
  - maxDistance: 2
    collisionSphereDistance: 3.4028235e+38
  - maxDistance: 2
    collisionSphereDistance: 3.4028235e+38
  - maxDistance: 2
    collisionSphereDistance: 3.4028235e+38
  - maxDistance: 2
    collisionSphereDistance: 3.4028235e+38
  - maxDistance: 2
    collisionSphereDistance: 3.4028235e+38
  - maxDistance: 2
    collisionSphereDistance: 3.4028235e+38
  - maxDistance: 2
    collisionSphereDistance: 3.4028235e+38
  - maxDistance: 2
    collisionSphereDistance: 3.4028235e+38
  - maxDistance: 2
    collisionSphereDistance: 3.4028235e+38
  - maxDistance: 2
    collisionSphereDistance: 3.4028235e+38
  - maxDistance: 2
    collisionSphereDistance: 3.4028235e+38
  - maxDistance: 0
    collisionSphereDistance: 3.4028235e+38
  - maxDistance: 0
    collisionSphereDistance: 3.4028235e+38
  - maxDistance: 0
    collisionSphereDistance: 3.4028235e+38
  - maxDistance: 0
    collisionSphereDistance: 3.4028235e+38
  - maxDistance: 0
    collisionSphereDistance: 3.4028235e+38
  - maxDistance: 2
    collisionSphereDistance: 3.4028235e+38
  - maxDistance: 2
    collisionSphereDistance: 3.4028235e+38
  - maxDistance: 2
    collisionSphereDistance: 3.4028235e+38
  - maxDistance: 2
    collisionSphereDistance: 3.4028235e+38
  - maxDistance: 2
    collisionSphereDistance: 3.4028235e+38
  - maxDistance: 2
    collisionSphereDistance: 3.4028235e+38
  - maxDistance: 2
    collisionSphereDistance: 3.4028235e+38
  - maxDistance: 2
    collisionSphereDistance: 3.4028235e+38
  - maxDistance: 2
    collisionSphereDistance: 3.4028235e+38
  - maxDistance: 2
    collisionSphereDistance: 3.4028235e+38
  - maxDistance: 2
    collisionSphereDistance: 3.4028235e+38
  - maxDistance: 2
    collisionSphereDistance: 3.4028235e+38
  - maxDistance: 2
    collisionSphereDistance: 3.4028235e+38
  - maxDistance: 2
    collisionSphereDistance: 3.4028235e+38
  - maxDistance: 2
    collisionSphereDistance: 3.4028235e+38
  - maxDistance: 2
    collisionSphereDistance: 3.4028235e+38
  - maxDistance: 2
    collisionSphereDistance: 3.4028235e+38
  - maxDistance: 2
    collisionSphereDistance: 3.4028235e+38
  - maxDistance: 2
    collisionSphereDistance: 3.4028235e+38
  - maxDistance: 2
    collisionSphereDistance: 3.4028235e+38
  - maxDistance: 2
    collisionSphereDistance: 3.4028235e+38
  - maxDistance: 2
    collisionSphereDistance: 3.4028235e+38
  - maxDistance: 2
    collisionSphereDistance: 3.4028235e+38
  - maxDistance: 2
    collisionSphereDistance: 3.4028235e+38
  - maxDistance: 2
    collisionSphereDistance: 3.4028235e+38
  - maxDistance: 2
    collisionSphereDistance: 3.4028235e+38
  - maxDistance: 2
    collisionSphereDistance: 3.4028235e+38
  - maxDistance: 2
    collisionSphereDistance: 3.4028235e+38
  - maxDistance: 2
    collisionSphereDistance: 3.4028235e+38
  - maxDistance: 2
    collisionSphereDistance: 3.4028235e+38
  - maxDistance: 0
    collisionSphereDistance: 3.4028235e+38
  - maxDistance: 0
    collisionSphereDistance: 3.4028235e+38
  - maxDistance: 0
    collisionSphereDistance: 3.4028235e+38
  - maxDistance: 0
    collisionSphereDistance: 3.4028235e+38
  - maxDistance: 2
    collisionSphereDistance: 3.4028235e+38
  - maxDistance: 2
    collisionSphereDistance: 3.4028235e+38
  - maxDistance: 2
    collisionSphereDistance: 3.4028235e+38
  - maxDistance: 2
    collisionSphereDistance: 3.4028235e+38
  - maxDistance: 2
    collisionSphereDistance: 3.4028235e+38
  - maxDistance: 2
    collisionSphereDistance: 3.4028235e+38
  - maxDistance: 2
    collisionSphereDistance: 3.4028235e+38
  - maxDistance: 2
    collisionSphereDistance: 3.4028235e+38
  - maxDistance: 2
    collisionSphereDistance: 3.4028235e+38
  - maxDistance: 2
    collisionSphereDistance: 3.4028235e+38
  - maxDistance: 2
    collisionSphereDistance: 3.4028235e+38
  - maxDistance: 2
    collisionSphereDistance: 3.4028235e+38
  - maxDistance: 2
    collisionSphereDistance: 3.4028235e+38
  - maxDistance: 2
    collisionSphereDistance: 3.4028235e+38
  - maxDistance: 2
    collisionSphereDistance: 3.4028235e+38
  - maxDistance: 0
    collisionSphereDistance: 3.4028235e+38
  - maxDistance: 0
    collisionSphereDistance: 3.4028235e+38
  - maxDistance: 0
    collisionSphereDistance: 3.4028235e+38
  - maxDistance: 2
    collisionSphereDistance: 3.4028235e+38
  - maxDistance: 2
    collisionSphereDistance: 3.4028235e+38
  - maxDistance: 2
    collisionSphereDistance: 3.4028235e+38
  - maxDistance: 2
    collisionSphereDistance: 3.4028235e+38
  - maxDistance: 2
    collisionSphereDistance: 3.4028235e+38
  - maxDistance: 2
    collisionSphereDistance: 3.4028235e+38
  - maxDistance: 2
    collisionSphereDistance: 3.4028235e+38
  - maxDistance: 2
    collisionSphereDistance: 3.4028235e+38
  - maxDistance: 2
    collisionSphereDistance: 3.4028235e+38
  - maxDistance: 2
    collisionSphereDistance: 3.4028235e+38
  - maxDistance: 2
    collisionSphereDistance: 3.4028235e+38
  - maxDistance: 2
    collisionSphereDistance: 3.4028235e+38
  - maxDistance: 2
    collisionSphereDistance: 3.4028235e+38
  - maxDistance: 2
    collisionSphereDistance: 3.4028235e+38
  - maxDistance: 2
    collisionSphereDistance: 3.4028235e+38
  - maxDistance: 0
    collisionSphereDistance: 3.4028235e+38
  - maxDistance: 0
    collisionSphereDistance: 3.4028235e+38
  - maxDistance: 0
    collisionSphereDistance: 3.4028235e+38
  - maxDistance: 2
    collisionSphereDistance: 3.4028235e+38
  - maxDistance: 2
    collisionSphereDistance: 3.4028235e+38
  - maxDistance: 2
    collisionSphereDistance: 3.4028235e+38
  - maxDistance: 2
    collisionSphereDistance: 3.4028235e+38
  - maxDistance: 2
    collisionSphereDistance: 3.4028235e+38
  - maxDistance: 2
    collisionSphereDistance: 3.4028235e+38
  - maxDistance: 2
    collisionSphereDistance: 3.4028235e+38
  - maxDistance: 2
    collisionSphereDistance: 3.4028235e+38
  - maxDistance: 2
    collisionSphereDistance: 3.4028235e+38
  - maxDistance: 2
    collisionSphereDistance: 3.4028235e+38
  - maxDistance: 2
    collisionSphereDistance: 3.4028235e+38
  - maxDistance: 2
    collisionSphereDistance: 3.4028235e+38
  - maxDistance: 2
    collisionSphereDistance: 3.4028235e+38
  - maxDistance: 2
    collisionSphereDistance: 3.4028235e+38
  - maxDistance: 2
    collisionSphereDistance: 3.4028235e+38
  - maxDistance: 0
    collisionSphereDistance: 3.4028235e+38
  - maxDistance: 0
    collisionSphereDistance: 3.4028235e+38
  - maxDistance: 0
    collisionSphereDistance: 3.4028235e+38
  - maxDistance: 2
    collisionSphereDistance: 3.4028235e+38
  - maxDistance: 2
    collisionSphereDistance: 3.4028235e+38
  - maxDistance: 2
    collisionSphereDistance: 3.4028235e+38
  - maxDistance: 2
    collisionSphereDistance: 3.4028235e+38
  - maxDistance: 2
    collisionSphereDistance: 3.4028235e+38
  - maxDistance: 2
    collisionSphereDistance: 3.4028235e+38
  - maxDistance: 2
    collisionSphereDistance: 3.4028235e+38
  - maxDistance: 2
    collisionSphereDistance: 3.4028235e+38
  - maxDistance: 2
    collisionSphereDistance: 3.4028235e+38
  - maxDistance: 2
    collisionSphereDistance: 3.4028235e+38
  - maxDistance: 2
    collisionSphereDistance: 3.4028235e+38
  - maxDistance: 2
    collisionSphereDistance: 3.4028235e+38
  - maxDistance: 2
    collisionSphereDistance: 3.4028235e+38
  - maxDistance: 2
    collisionSphereDistance: 3.4028235e+38
  - maxDistance: 2
    collisionSphereDistance: 3.4028235e+38
  - maxDistance: 0
    collisionSphereDistance: 3.4028235e+38
  - maxDistance: 0
    collisionSphereDistance: 3.4028235e+38
  - maxDistance: 0
    collisionSphereDistance: 3.4028235e+38
  - maxDistance: 2
    collisionSphereDistance: 3.4028235e+38
  - maxDistance: 2
    collisionSphereDistance: 3.4028235e+38
  - maxDistance: 2
    collisionSphereDistance: 3.4028235e+38
  - maxDistance: 2
    collisionSphereDistance: 3.4028235e+38
  - maxDistance: 2
    collisionSphereDistance: 3.4028235e+38
  - maxDistance: 2
    collisionSphereDistance: 3.4028235e+38
  - maxDistance: 2
    collisionSphereDistance: 3.4028235e+38
  - maxDistance: 2
    collisionSphereDistance: 3.4028235e+38
  - maxDistance: 2
    collisionSphereDistance: 3.4028235e+38
  - maxDistance: 2
    collisionSphereDistance: 3.4028235e+38
  - maxDistance: 2
    collisionSphereDistance: 3.4028235e+38
  - maxDistance: 2
    collisionSphereDistance: 3.4028235e+38
  - maxDistance: 2
    collisionSphereDistance: 3.4028235e+38
  - maxDistance: 2
    collisionSphereDistance: 3.4028235e+38
  - maxDistance: 2
    collisionSphereDistance: 3.4028235e+38
  - maxDistance: 0
    collisionSphereDistance: 3.4028235e+38
  - maxDistance: 0
    collisionSphereDistance: 3.4028235e+38
  - maxDistance: 0
    collisionSphereDistance: 3.4028235e+38
  - maxDistance: 2
    collisionSphereDistance: 3.4028235e+38
  - maxDistance: 2
    collisionSphereDistance: 3.4028235e+38
  - maxDistance: 2
    collisionSphereDistance: 3.4028235e+38
  - maxDistance: 2
    collisionSphereDistance: 3.4028235e+38
  - maxDistance: 2
    collisionSphereDistance: 3.4028235e+38
  - maxDistance: 2
    collisionSphereDistance: 3.4028235e+38
  - maxDistance: 2
    collisionSphereDistance: 3.4028235e+38
  - maxDistance: 2
    collisionSphereDistance: 3.4028235e+38
  - maxDistance: 2
    collisionSphereDistance: 3.4028235e+38
  - maxDistance: 2
    collisionSphereDistance: 3.4028235e+38
  - maxDistance: 2
    collisionSphereDistance: 3.4028235e+38
  - maxDistance: 2
    collisionSphereDistance: 3.4028235e+38
  - maxDistance: 2
    collisionSphereDistance: 3.4028235e+38
  - maxDistance: 2
    collisionSphereDistance: 3.4028235e+38
  - maxDistance: 2
    collisionSphereDistance: 3.4028235e+38
  - maxDistance: 0
    collisionSphereDistance: 3.4028235e+38
  - maxDistance: 0
    collisionSphereDistance: 3.4028235e+38
  - maxDistance: 0
    collisionSphereDistance: 3.4028235e+38
  - maxDistance: 2
    collisionSphereDistance: 3.4028235e+38
  - maxDistance: 2
    collisionSphereDistance: 3.4028235e+38
  - maxDistance: 2
    collisionSphereDistance: 3.4028235e+38
  - maxDistance: 2
    collisionSphereDistance: 3.4028235e+38
  - maxDistance: 2
    collisionSphereDistance: 3.4028235e+38
  - maxDistance: 2
    collisionSphereDistance: 3.4028235e+38
  - maxDistance: 2
    collisionSphereDistance: 3.4028235e+38
  - maxDistance: 2
    collisionSphereDistance: 3.4028235e+38
  - maxDistance: 2
    collisionSphereDistance: 3.4028235e+38
  - maxDistance: 2
    collisionSphereDistance: 3.4028235e+38
  - maxDistance: 2
    collisionSphereDistance: 3.4028235e+38
  - maxDistance: 2
    collisionSphereDistance: 3.4028235e+38
  - maxDistance: 2
    collisionSphereDistance: 3.4028235e+38
  - maxDistance: 2
    collisionSphereDistance: 3.4028235e+38
  - maxDistance: 2
    collisionSphereDistance: 3.4028235e+38
  - maxDistance: 0
    collisionSphereDistance: 3.4028235e+38
  - maxDistance: 0
    collisionSphereDistance: 3.4028235e+38
  - maxDistance: 0
    collisionSphereDistance: 3.4028235e+38
  - maxDistance: 2
    collisionSphereDistance: 3.4028235e+38
  - maxDistance: 2
    collisionSphereDistance: 3.4028235e+38
  - maxDistance: 2
    collisionSphereDistance: 3.4028235e+38
  - maxDistance: 2
    collisionSphereDistance: 3.4028235e+38
  - maxDistance: 2
    collisionSphereDistance: 3.4028235e+38
  - maxDistance: 2
    collisionSphereDistance: 3.4028235e+38
  - maxDistance: 2
    collisionSphereDistance: 3.4028235e+38
  - maxDistance: 2
    collisionSphereDistance: 3.4028235e+38
  - maxDistance: 2
    collisionSphereDistance: 3.4028235e+38
  - maxDistance: 2
    collisionSphereDistance: 3.4028235e+38
  - maxDistance: 2
    collisionSphereDistance: 3.4028235e+38
  - maxDistance: 2
    collisionSphereDistance: 3.4028235e+38
  - maxDistance: 2
    collisionSphereDistance: 3.4028235e+38
  - maxDistance: 2
    collisionSphereDistance: 3.4028235e+38
  - maxDistance: 2
    collisionSphereDistance: 3.4028235e+38
  - maxDistance: 0
    collisionSphereDistance: 3.4028235e+38
  - maxDistance: 0
    collisionSphereDistance: 3.4028235e+38
  - maxDistance: 0
    collisionSphereDistance: 3.4028235e+38
  - maxDistance: 2
    collisionSphereDistance: 3.4028235e+38
  - maxDistance: 2
    collisionSphereDistance: 3.4028235e+38
  - maxDistance: 2
    collisionSphereDistance: 3.4028235e+38
  - maxDistance: 2
    collisionSphereDistance: 3.4028235e+38
  - maxDistance: 2
    collisionSphereDistance: 3.4028235e+38
  - maxDistance: 2
    collisionSphereDistance: 3.4028235e+38
  - maxDistance: 2
    collisionSphereDistance: 3.4028235e+38
  - maxDistance: 2
    collisionSphereDistance: 3.4028235e+38
  - maxDistance: 2
    collisionSphereDistance: 3.4028235e+38
  - maxDistance: 2
    collisionSphereDistance: 3.4028235e+38
  - maxDistance: 2
    collisionSphereDistance: 3.4028235e+38
  - maxDistance: 2
    collisionSphereDistance: 3.4028235e+38
  - maxDistance: 2
    collisionSphereDistance: 3.4028235e+38
  - maxDistance: 2
    collisionSphereDistance: 3.4028235e+38
  - maxDistance: 2
    collisionSphereDistance: 3.4028235e+38
  - maxDistance: 0
    collisionSphereDistance: 3.4028235e+38
  - maxDistance: 0
    collisionSphereDistance: 3.4028235e+38
  - maxDistance: 0
    collisionSphereDistance: 3.4028235e+38
  - maxDistance: 2
    collisionSphereDistance: 3.4028235e+38
  - maxDistance: 2
    collisionSphereDistance: 3.4028235e+38
  - maxDistance: 2
    collisionSphereDistance: 3.4028235e+38
  - maxDistance: 2
    collisionSphereDistance: 3.4028235e+38
  - maxDistance: 2
    collisionSphereDistance: 3.4028235e+38
  - maxDistance: 2
    collisionSphereDistance: 3.4028235e+38
  - maxDistance: 2
    collisionSphereDistance: 3.4028235e+38
  - maxDistance: 2
    collisionSphereDistance: 3.4028235e+38
  - maxDistance: 2
    collisionSphereDistance: 3.4028235e+38
  - maxDistance: 2
    collisionSphereDistance: 3.4028235e+38
  - maxDistance: 2
    collisionSphereDistance: 3.4028235e+38
  - maxDistance: 2
    collisionSphereDistance: 3.4028235e+38
  - maxDistance: 2
    collisionSphereDistance: 3.4028235e+38
  - maxDistance: 2
    collisionSphereDistance: 3.4028235e+38
  - maxDistance: 2
    collisionSphereDistance: 3.4028235e+38
  - maxDistance: 0
    collisionSphereDistance: 3.4028235e+38
  - maxDistance: 0
    collisionSphereDistance: 3.4028235e+38
  - maxDistance: 0
    collisionSphereDistance: 3.4028235e+38
  - maxDistance: 2
    collisionSphereDistance: 3.4028235e+38
  - maxDistance: 2
    collisionSphereDistance: 3.4028235e+38
  - maxDistance: 2
    collisionSphereDistance: 3.4028235e+38
  - maxDistance: 2
    collisionSphereDistance: 3.4028235e+38
  - maxDistance: 2
    collisionSphereDistance: 3.4028235e+38
  - maxDistance: 2
    collisionSphereDistance: 3.4028235e+38
  - maxDistance: 2
    collisionSphereDistance: 3.4028235e+38
  - maxDistance: 2
    collisionSphereDistance: 3.4028235e+38
  - maxDistance: 2
    collisionSphereDistance: 3.4028235e+38
  - maxDistance: 2
    collisionSphereDistance: 3.4028235e+38
  - maxDistance: 2
    collisionSphereDistance: 3.4028235e+38
  - maxDistance: 2
    collisionSphereDistance: 3.4028235e+38
  - maxDistance: 2
    collisionSphereDistance: 3.4028235e+38
  - maxDistance: 2
    collisionSphereDistance: 3.4028235e+38
  - maxDistance: 2
    collisionSphereDistance: 3.4028235e+38
  - maxDistance: 0
    collisionSphereDistance: 3.4028235e+38
  - maxDistance: 0
    collisionSphereDistance: 3.4028235e+38
  - maxDistance: 0
    collisionSphereDistance: 3.4028235e+38
  - maxDistance: 2
    collisionSphereDistance: 3.4028235e+38
  - maxDistance: 2
    collisionSphereDistance: 3.4028235e+38
  - maxDistance: 2
    collisionSphereDistance: 3.4028235e+38
  - maxDistance: 2
    collisionSphereDistance: 3.4028235e+38
  - maxDistance: 2
    collisionSphereDistance: 3.4028235e+38
  - maxDistance: 2
    collisionSphereDistance: 3.4028235e+38
  - maxDistance: 2
    collisionSphereDistance: 3.4028235e+38
  - maxDistance: 2
    collisionSphereDistance: 3.4028235e+38
  - maxDistance: 2
    collisionSphereDistance: 3.4028235e+38
  - maxDistance: 2
    collisionSphereDistance: 3.4028235e+38
  - maxDistance: 2
    collisionSphereDistance: 3.4028235e+38
  - maxDistance: 2
    collisionSphereDistance: 3.4028235e+38
  - maxDistance: 2
    collisionSphereDistance: 3.4028235e+38
  - maxDistance: 2
    collisionSphereDistance: 3.4028235e+38
  - maxDistance: 2
    collisionSphereDistance: 3.4028235e+38
  - maxDistance: 0
    collisionSphereDistance: 3.4028235e+38
  - maxDistance: 0
    collisionSphereDistance: 3.4028235e+38
  - maxDistance: 0
    collisionSphereDistance: 3.4028235e+38
  - maxDistance: 2
    collisionSphereDistance: 3.4028235e+38
  - maxDistance: 2
    collisionSphereDistance: 3.4028235e+38
  - maxDistance: 2
    collisionSphereDistance: 3.4028235e+38
  - maxDistance: 2
    collisionSphereDistance: 3.4028235e+38
  - maxDistance: 2
    collisionSphereDistance: 3.4028235e+38
  - maxDistance: 2
    collisionSphereDistance: 3.4028235e+38
  - maxDistance: 2
    collisionSphereDistance: 3.4028235e+38
  - maxDistance: 2
    collisionSphereDistance: 3.4028235e+38
  - maxDistance: 2
    collisionSphereDistance: 3.4028235e+38
  - maxDistance: 2
    collisionSphereDistance: 3.4028235e+38
  - maxDistance: 2
    collisionSphereDistance: 3.4028235e+38
  - maxDistance: 2
    collisionSphereDistance: 3.4028235e+38
  - maxDistance: 2
    collisionSphereDistance: 3.4028235e+38
  - maxDistance: 2
    collisionSphereDistance: 3.4028235e+38
  - maxDistance: 2
    collisionSphereDistance: 3.4028235e+38
  - maxDistance: 0
    collisionSphereDistance: 3.4028235e+38
  - maxDistance: 0
    collisionSphereDistance: 3.4028235e+38
  - maxDistance: 0
    collisionSphereDistance: 3.4028235e+38
  - maxDistance: 2
    collisionSphereDistance: 3.4028235e+38
  - maxDistance: 2
    collisionSphereDistance: 3.4028235e+38
  - maxDistance: 2
    collisionSphereDistance: 3.4028235e+38
  - maxDistance: 2
    collisionSphereDistance: 3.4028235e+38
  - maxDistance: 2
    collisionSphereDistance: 3.4028235e+38
  - maxDistance: 2
    collisionSphereDistance: 3.4028235e+38
  - maxDistance: 2
    collisionSphereDistance: 3.4028235e+38
  - maxDistance: 2
    collisionSphereDistance: 3.4028235e+38
  - maxDistance: 2
    collisionSphereDistance: 3.4028235e+38
  - maxDistance: 2
    collisionSphereDistance: 3.4028235e+38
  - maxDistance: 2
    collisionSphereDistance: 3.4028235e+38
  - maxDistance: 2
    collisionSphereDistance: 3.4028235e+38
  - maxDistance: 2
    collisionSphereDistance: 3.4028235e+38
  - maxDistance: 2
    collisionSphereDistance: 3.4028235e+38
  - maxDistance: 2
    collisionSphereDistance: 3.4028235e+38
  - maxDistance: 0
    collisionSphereDistance: 3.4028235e+38
  - maxDistance: 0
    collisionSphereDistance: 3.4028235e+38
  - maxDistance: 0
    collisionSphereDistance: 3.4028235e+38
  - maxDistance: 2
    collisionSphereDistance: 3.4028235e+38
  - maxDistance: 2
    collisionSphereDistance: 3.4028235e+38
  - maxDistance: 2
    collisionSphereDistance: 3.4028235e+38
  - maxDistance: 2
    collisionSphereDistance: 3.4028235e+38
  - maxDistance: 2
    collisionSphereDistance: 3.4028235e+38
  - maxDistance: 2
    collisionSphereDistance: 3.4028235e+38
  - maxDistance: 2
    collisionSphereDistance: 3.4028235e+38
  - maxDistance: 2
    collisionSphereDistance: 3.4028235e+38
  - maxDistance: 2
    collisionSphereDistance: 3.4028235e+38
  - maxDistance: 2
    collisionSphereDistance: 3.4028235e+38
  - maxDistance: 2
    collisionSphereDistance: 3.4028235e+38
  - maxDistance: 2
    collisionSphereDistance: 3.4028235e+38
  - maxDistance: 2
    collisionSphereDistance: 3.4028235e+38
  - maxDistance: 2
    collisionSphereDistance: 3.4028235e+38
  - maxDistance: 2
    collisionSphereDistance: 3.4028235e+38
  - maxDistance: 0
    collisionSphereDistance: 3.4028235e+38
  - maxDistance: 0
    collisionSphereDistance: 3.4028235e+38
  - maxDistance: 0
    collisionSphereDistance: 3.4028235e+38
  - maxDistance: 2
    collisionSphereDistance: 3.4028235e+38
  - maxDistance: 2
    collisionSphereDistance: 3.4028235e+38
  - maxDistance: 2
    collisionSphereDistance: 3.4028235e+38
  - maxDistance: 2
    collisionSphereDistance: 3.4028235e+38
  - maxDistance: 2
    collisionSphereDistance: 3.4028235e+38
  - maxDistance: 2
    collisionSphereDistance: 3.4028235e+38
  - maxDistance: 2
    collisionSphereDistance: 3.4028235e+38
  - maxDistance: 2
    collisionSphereDistance: 3.4028235e+38
  - maxDistance: 2
    collisionSphereDistance: 3.4028235e+38
  - maxDistance: 2
    collisionSphereDistance: 3.4028235e+38
  - maxDistance: 2
    collisionSphereDistance: 3.4028235e+38
  - maxDistance: 2
    collisionSphereDistance: 3.4028235e+38
  - maxDistance: 2
    collisionSphereDistance: 3.4028235e+38
  - maxDistance: 2
    collisionSphereDistance: 3.4028235e+38
  - maxDistance: 2
    collisionSphereDistance: 3.4028235e+38
  - maxDistance: 0
    collisionSphereDistance: 3.4028235e+38
  - maxDistance: 0
    collisionSphereDistance: 3.4028235e+38
  - maxDistance: 0
    collisionSphereDistance: 3.4028235e+38
  - maxDistance: 2
    collisionSphereDistance: 3.4028235e+38
  - maxDistance: 2
    collisionSphereDistance: 3.4028235e+38
  - maxDistance: 2
    collisionSphereDistance: 3.4028235e+38
  - maxDistance: 2
    collisionSphereDistance: 3.4028235e+38
  - maxDistance: 2
    collisionSphereDistance: 3.4028235e+38
  - maxDistance: 2
    collisionSphereDistance: 3.4028235e+38
  - maxDistance: 2
    collisionSphereDistance: 3.4028235e+38
  - maxDistance: 2
    collisionSphereDistance: 3.4028235e+38
  - maxDistance: 2
    collisionSphereDistance: 3.4028235e+38
  - maxDistance: 2
    collisionSphereDistance: 3.4028235e+38
  - maxDistance: 2
    collisionSphereDistance: 3.4028235e+38
  - maxDistance: 2
    collisionSphereDistance: 3.4028235e+38
  - maxDistance: 2
    collisionSphereDistance: 3.4028235e+38
  - maxDistance: 2
    collisionSphereDistance: 3.4028235e+38
  - maxDistance: 2
    collisionSphereDistance: 3.4028235e+38
  - maxDistance: 0
    collisionSphereDistance: 3.4028235e+38
  - maxDistance: 0
    collisionSphereDistance: 3.4028235e+38
  - maxDistance: 0
    collisionSphereDistance: 3.4028235e+38
  - maxDistance: 2
    collisionSphereDistance: 3.4028235e+38
  - maxDistance: 2
    collisionSphereDistance: 3.4028235e+38
  - maxDistance: 2
    collisionSphereDistance: 3.4028235e+38
  - maxDistance: 2
    collisionSphereDistance: 3.4028235e+38
  - maxDistance: 2
    collisionSphereDistance: 3.4028235e+38
  - maxDistance: 2
    collisionSphereDistance: 3.4028235e+38
  - maxDistance: 2
    collisionSphereDistance: 3.4028235e+38
  - maxDistance: 2
    collisionSphereDistance: 3.4028235e+38
  - maxDistance: 2
    collisionSphereDistance: 3.4028235e+38
  - maxDistance: 2
    collisionSphereDistance: 3.4028235e+38
  - maxDistance: 2
    collisionSphereDistance: 3.4028235e+38
  - maxDistance: 2
    collisionSphereDistance: 3.4028235e+38
  - maxDistance: 2
    collisionSphereDistance: 3.4028235e+38
  - maxDistance: 2
    collisionSphereDistance: 3.4028235e+38
  - maxDistance: 2
    collisionSphereDistance: 3.4028235e+38
  - maxDistance: 0
    collisionSphereDistance: 3.4028235e+38
  - maxDistance: 0
    collisionSphereDistance: 3.4028235e+38
  - maxDistance: 0
    collisionSphereDistance: 3.4028235e+38
  - maxDistance: 2
    collisionSphereDistance: 3.4028235e+38
  - maxDistance: 2
    collisionSphereDistance: 3.4028235e+38
  - maxDistance: 2
    collisionSphereDistance: 3.4028235e+38
  - maxDistance: 2
    collisionSphereDistance: 3.4028235e+38
  - maxDistance: 2
    collisionSphereDistance: 3.4028235e+38
  - maxDistance: 2
    collisionSphereDistance: 3.4028235e+38
  - maxDistance: 2
    collisionSphereDistance: 3.4028235e+38
  - maxDistance: 2
    collisionSphereDistance: 3.4028235e+38
  - maxDistance: 2
    collisionSphereDistance: 3.4028235e+38
  - maxDistance: 2
    collisionSphereDistance: 3.4028235e+38
  - maxDistance: 2
    collisionSphereDistance: 3.4028235e+38
  - maxDistance: 2
    collisionSphereDistance: 3.4028235e+38
  - maxDistance: 2
    collisionSphereDistance: 3.4028235e+38
  - maxDistance: 2
    collisionSphereDistance: 3.4028235e+38
  - maxDistance: 2
    collisionSphereDistance: 3.4028235e+38
  - maxDistance: 0
    collisionSphereDistance: 3.4028235e+38
  - maxDistance: 0
    collisionSphereDistance: 3.4028235e+38
  - maxDistance: 0
    collisionSphereDistance: 3.4028235e+38
  - maxDistance: 2
    collisionSphereDistance: 3.4028235e+38
  - maxDistance: 2
    collisionSphereDistance: 3.4028235e+38
  - maxDistance: 2
    collisionSphereDistance: 3.4028235e+38
  - maxDistance: 2
    collisionSphereDistance: 3.4028235e+38
  - maxDistance: 2
    collisionSphereDistance: 3.4028235e+38
  - maxDistance: 2
    collisionSphereDistance: 3.4028235e+38
  - maxDistance: 2
    collisionSphereDistance: 3.4028235e+38
  - maxDistance: 2
    collisionSphereDistance: 3.4028235e+38
  - maxDistance: 2
    collisionSphereDistance: 3.4028235e+38
  - maxDistance: 2
    collisionSphereDistance: 3.4028235e+38
  - maxDistance: 2
    collisionSphereDistance: 3.4028235e+38
  - maxDistance: 2
    collisionSphereDistance: 3.4028235e+38
  - maxDistance: 2
    collisionSphereDistance: 3.4028235e+38
  - maxDistance: 2
    collisionSphereDistance: 3.4028235e+38
  - maxDistance: 2
    collisionSphereDistance: 3.4028235e+38
  - maxDistance: 0
    collisionSphereDistance: 3.4028235e+38
  - maxDistance: 0
    collisionSphereDistance: 3.4028235e+38
  - maxDistance: 0
    collisionSphereDistance: 3.4028235e+38
  - maxDistance: 2
    collisionSphereDistance: 3.4028235e+38
  - maxDistance: 2
    collisionSphereDistance: 3.4028235e+38
  - maxDistance: 2
    collisionSphereDistance: 3.4028235e+38
  - maxDistance: 2
    collisionSphereDistance: 3.4028235e+38
  - maxDistance: 2
    collisionSphereDistance: 3.4028235e+38
  - maxDistance: 2
    collisionSphereDistance: 3.4028235e+38
  - maxDistance: 2
    collisionSphereDistance: 3.4028235e+38
  - maxDistance: 2
    collisionSphereDistance: 3.4028235e+38
  - maxDistance: 2
    collisionSphereDistance: 3.4028235e+38
  - maxDistance: 2
    collisionSphereDistance: 3.4028235e+38
  - maxDistance: 2
    collisionSphereDistance: 3.4028235e+38
  - maxDistance: 2
    collisionSphereDistance: 3.4028235e+38
  - maxDistance: 2
    collisionSphereDistance: 3.4028235e+38
  - maxDistance: 2
    collisionSphereDistance: 3.4028235e+38
  - maxDistance: 2
    collisionSphereDistance: 3.4028235e+38
  - maxDistance: 0
    collisionSphereDistance: 3.4028235e+38
  - maxDistance: 0
    collisionSphereDistance: 3.4028235e+38
  - maxDistance: 0
    collisionSphereDistance: 3.4028235e+38
  - maxDistance: 2
    collisionSphereDistance: 3.4028235e+38
  - maxDistance: 2
    collisionSphereDistance: 3.4028235e+38
  - maxDistance: 2
    collisionSphereDistance: 3.4028235e+38
  - maxDistance: 2
    collisionSphereDistance: 3.4028235e+38
  - maxDistance: 2
    collisionSphereDistance: 3.4028235e+38
  - maxDistance: 2
    collisionSphereDistance: 3.4028235e+38
  - maxDistance: 2
    collisionSphereDistance: 3.4028235e+38
  - maxDistance: 2
    collisionSphereDistance: 3.4028235e+38
  - maxDistance: 2
    collisionSphereDistance: 3.4028235e+38
  - maxDistance: 2
    collisionSphereDistance: 3.4028235e+38
  - maxDistance: 2
    collisionSphereDistance: 3.4028235e+38
  - maxDistance: 2
    collisionSphereDistance: 3.4028235e+38
  - maxDistance: 2
    collisionSphereDistance: 3.4028235e+38
  - maxDistance: 2
    collisionSphereDistance: 3.4028235e+38
  - maxDistance: 2
    collisionSphereDistance: 3.4028235e+38
  - maxDistance: 0
    collisionSphereDistance: 3.4028235e+38
  m_CapsuleColliders: []
  m_SphereColliders: []
  m_SelfCollisionDistance: 0
  m_SelfCollisionStiffness: 0.2
  m_SelfAndInterCollisionIndices: 
  m_VirtualParticleWeights:
  - {x: 0.33333334, y: 0.33333334, z: 0.33333334}
  - {x: 0.6666667, y: 0.16666667, z: 0.16666667}
  - {x: 0.5, y: 0.5, z: 0}
  m_VirtualParticleIndices: 
